<?xml version="1.0" encoding="UTF-8"?>
<svg width="21px" height="20px" viewBox="0 0 21 20" version="1.1" xmlns="http://www.w3.org/2000/svg" xmlns:xlink="http://www.w3.org/1999/xlink">
    <!-- Generator: Sketch 48.2 (47327) - http://www.bohemiancoding.com/sketch -->
    <title>Group</title>
    <desc>Created with Sketch.</desc>
    <defs>
        <polygon id="path-1" points="2.04344136 1.487125 2.04344136 0.229 0.00558796296 0.229 0.00558796296 1.487125 2.04344136 1.487125"></polygon>
    </defs>
    <g id="Desktop-HD" stroke="none" stroke-width="1" fill="none" fill-rule="evenodd" transform="translate(-1270.000000, -594.000000)">
        <g id="Featured-area" transform="translate(-283.000000, -634.000000)">
            <g id="Content" transform="translate(1135.000000, 1027.000000)">
                <g id="buttons" transform="translate(61.000000, 186.000000)">
                    <g id="Pay-Button" transform="translate(215.000000, 0.000000)">
                        <g id="Group" transform="translate(0.000000, 9.000000)">
                            <g id="Page-1" transform="translate(140.000000, 6.000000)">
                                <g id="Group-3" transform="translate(19.996142, 0.083625)">
                                    <mask id="mask-2" fill="white">
                                        <use xlink:href="#path-1"></use>
                                    </mask>
                                    <g id="Clip-2"></g>
                                    <path d="M0.48576929,1.487125 L0.34223534,1.487125 L0.34223534,0.3668125 L0.00558796296,0.3668125 L0.00558796296,0.229 L0.824060185,0.229 L0.824060185,0.3668125 L0.48576929,0.3668125 L0.48576929,1.487125 Z M1.90248225,1.487125 L1.87618596,0.9343125 C1.86769444,0.759 1.85810725,0.5461875 1.85810725,0.3911875 L1.85482022,0.3911875 C1.81564969,0.5368125 1.77100077,0.6955625 1.71539506,0.869 L1.5203642,1.479625 L1.41189198,1.479625 L1.2319267,0.8805625 C1.17878627,0.700875 1.13578086,0.5405625 1.10537577,0.3911875 L1.1015409,0.3911875 C1.09825386,0.5480625 1.09003627,0.757125 1.07990123,0.9474375 L1.05086574,1.487125 L0.914453704,1.487125 L0.991972994,0.229 L1.17385571,0.229 L1.3623125,0.8374375 C1.40860494,0.9924375 1.44476235,1.13025 1.47379784,1.2611875 L1.47708488,1.2611875 C1.50721605,1.1343125 1.54638657,0.9961875 1.59569213,0.8374375 L1.79291435,0.229 L1.97479707,0.229 L2.04355093,1.487125 L1.90248225,1.487125 Z" id="Fill-1" fill="#FFFFFF" mask="url(#mask-2)"></path>
                                </g>
                                <path d="M14.8200174,0.3125 L6.93249807,0.3125 L5.88228974,1.2296875 L6.43752508,1.2296875 L13.466032,1.2296875 L14.6784008,1.2296875 C18.3092072,1.2296875 20.7424363,4.5996875 20.102012,8.7421875 C19.4618615,12.884375 15.9869155,16.254375 12.3563831,16.254375 L8.96525656,16.254375 L8.96553048,16.250625 L8.161576,16.250625 L8.01913773,17.1715625 L12.2144927,17.1715625 C16.2887751,17.1715625 20.1877488,13.39 20.9059664,8.7421875 C21.624184,4.0940625 18.8945737,0.3125 14.8200174,0.3125" id="Fill-4" fill="#FFFFFF"></path>
                                <polygon id="Fill-6" fill="#FFFFFF" points="8.96711921 16.2525938 8.42996258 19.7710313 7.62299498 19.7710313 8.1598777 16.2525938"></polygon>
                                <path d="M14.4107265,2.0398125 L4.95446875,2.0398125 L3.90453434,2.957 L6.28927971,2.957 L7.04447647,2.957 L14.26911,2.957 C17.0655567,2.957 18.9388939,5.552 18.4458383,8.742 C17.9536046,11.9316875 15.2771346,14.5273125 12.4809618,14.5273125 L9.43223495,14.5229375 L6.97243557,14.5229375 L6.82972338,15.4441875 L12.3393453,15.4441875 C15.5792681,15.4441875 18.6789441,12.4373125 19.2497928,8.742 C19.8209155,5.0466875 17.6503754,2.0398125 14.4107265,2.0398125" id="Fill-8" fill="#FFFFFF"></path>
                                <polygon id="Fill-10" fill="#FFFFFF" points="7.77967708 14.5230313 7.025576 19.3077188 6.21888233 19.3077188 6.97243557 14.5230313"></polygon>
                                <path d="M13.9969159,3.7896875 L2.95082793,3.7896875 L1.90363272,4.7040625 L1.90281096,4.7065625 L4.2524946,4.7065625 L4.95455093,4.7065625 L13.8544776,4.7065625 C15.805608,4.7065625 17.1124792,6.5171875 16.7687099,8.7421875 C16.4241188,10.9671875 14.5584514,12.7771875 12.6078688,12.7771875 L8.33198148,12.7771875 L8.33198148,12.7746875 L5.70892593,12.7746875 L5.56703549,13.694375 L12.4657045,13.694375 C14.8597631,13.694375 17.1502801,11.4725 17.5721165,8.7421875 C17.9945008,6.01125 16.3907006,3.7896875 13.9969159,3.7896875" id="Fill-12" fill="#FFFFFF"></path>
                                <polygon id="Fill-14" fill="#FFFFFF" points="5.42355633 19.771125 6.51567438 12.774875 5.70898071 12.774875 4.61686265 19.771125"></polygon>
                                <polygon id="Fill-16" fill="#FFFFFF" points="3.91913426 19.771125 5.25942361 11.1083125 4.45245602 11.1083125 3.11244059 19.771125"></polygon>
                                <path d="M13.6044985,5.44890625 L1.05048225,5.44890625 L0,6.36609375 L5.58659336,6.36609375 L5.77641975,6.36609375 L13.4620602,6.36609375 C14.6108796,6.36609375 15.3800463,7.43171875 15.1776196,8.74203125 C14.9754668,10.0520313 13.8762269,11.1176563 12.7279552,11.1176563 L10.1794059,11.1176563 L10.1810494,11.1082813 L4.45256559,11.1082813 L4.30903164,12.0348438 L12.5857909,12.0348438 C14.1778125,12.0348438 15.7005324,10.5576563 15.9813002,8.74203125 C16.2620679,6.92640625 15.1956983,5.44890625 13.6044985,5.44890625" id="Fill-18" fill="#FFFFFF"></path>
                                <path d="M6.95178202,19.771125 L7.57714082,15.772375 C7.55769252,15.7820625 7.53851813,15.793 7.51852199,15.802375 C7.25062847,15.9308125 6.98026968,16.048 6.71045872,16.167375 L6.14700579,19.771125 L6.95178202,19.771125 Z" id="Fill-20" fill="#FFFFFF"></path>
                            </g>
                        </g>
                    </g>
                </g>
            </g>
        </g>
    </g>
</svg>